
{
  "header": {
    "reportVersion": 2,
    "event": "Allocation failed - JavaScript heap out of memory",
    "trigger": "FatalError",
    "filename": "report.20200916.035349.4172.0.001.json",
    "dumpEventTime": "2020-09-16T03:53:49Z",
    "dumpEventTimeStamp": "1600206829695",
    "processId": 4172,
    "threadId": null,
    "cwd": "C:\\xampp\\htdocs\\sn\\wp-content\\themes\\splendid",
    "commandLine": [
      "node",
      "C:\\xampp\\htdocs\\sn\\wp-content\\themes\\splendid\\node_modules\\.bin\\\\..\\gulp\\bin\\gulp.js"
    ],
    "nodejsVersion": "v13.11.0",
    "wordSize": 64,
    "arch": "x64",
    "platform": "win32",
    "componentVersions": {
      "node": "13.11.0",
      "v8": "7.9.317.25-node.29",
      "uv": "1.34.2",
      "zlib": "1.2.11",
      "brotli": "1.0.7",
      "ares": "1.15.0",
      "modules": "79",
      "nghttp2": "1.40.0",
      "napi": "6",
      "llhttp": "2.0.4",
      "openssl": "1.1.1d",
      "cldr": "36.0",
      "icu": "65.1",
      "tz": "2019c",
      "unicode": "12.1"
    },
    "release": {
      "name": "node",
      "headersUrl": "https://nodejs.org/download/release/v13.11.0/node-v13.11.0-headers.tar.gz",
      "sourceUrl": "https://nodejs.org/download/release/v13.11.0/node-v13.11.0.tar.gz",
      "libUrl": "https://nodejs.org/download/release/v13.11.0/win-x64/node.lib"
    },
    "osName": "Windows_NT",
    "osRelease": "10.0.18362",
    "osVersion": "Windows 10 Pro",
    "osMachine": "x86_64",
    "cpus": [
      {
        "model": "Intel(R) Core(TM) i3-4150 CPU @ 3.50GHz",
        "speed": 3492,
        "user": 7289171,
        "nice": 0,
        "sys": 4797125,
        "idle": 43552515,
        "irq": 367562
      },
      {
        "model": "Intel(R) Core(TM) i3-4150 CPU @ 3.50GHz",
        "speed": 3492,
        "user": 6787265,
        "nice": 0,
        "sys": 3660703,
        "idle": 45190703,
        "irq": 89906
      },
      {
        "model": "Intel(R) Core(TM) i3-4150 CPU @ 3.50GHz",
        "speed": 3492,
        "user": 7903093,
        "nice": 0,
        "sys": 4357234,
        "idle": 43378343,
        "irq": 51203
      },
      {
        "model": "Intel(R) Core(TM) i3-4150 CPU @ 3.50GHz",
        "speed": 3492,
        "user": 7661453,
        "nice": 0,
        "sys": 3613953,
        "idle": 44363265,
        "irq": 39734
      }
    ],
    "networkInterfaces": [
      {
        "name": "Ethernet",
        "internal": false,
        "mac": "fc:aa:14:65:70:58",
        "address": "fe80::e5d9:57a2:767b:e2d3",
        "netmask": "ffff:ffff:ffff:ffff::",
        "family": "IPv6",
        "scopeid": 14
      },
      {
        "name": "Ethernet",
        "internal": false,
        "mac": "fc:aa:14:65:70:58",
        "address": "192.168.0.104",
        "netmask": "255.255.255.0",
        "family": "IPv4"
      },
      {
        "name": "VMware Network Adapter VMnet1",
        "internal": false,
        "mac": "00:50:56:c0:00:01",
        "address": "fe80::b589:fce7:f74f:ee5c",
        "netmask": "ffff:ffff:ffff:ffff::",
        "family": "IPv6",
        "scopeid": 13
      },
      {
        "name": "VMware Network Adapter VMnet1",
        "internal": false,
        "mac": "00:50:56:c0:00:01",
        "address": "192.168.64.1",
        "netmask": "255.255.255.0",
        "family": "IPv4"
      },
      {
        "name": "VMware Network Adapter VMnet8",
        "internal": false,
        "mac": "00:50:56:c0:00:08",
        "address": "fe80::b8b6:f797:6918:dcc7",
        "netmask": "ffff:ffff:ffff:ffff::",
        "family": "IPv6",
        "scopeid": 17
      },
      {
        "name": "VMware Network Adapter VMnet8",
        "internal": false,
        "mac": "00:50:56:c0:00:08",
        "address": "192.168.180.1",
        "netmask": "255.255.255.0",
        "family": "IPv4"
      },
      {
        "name": "Loopback Pseudo-Interface 1",
        "internal": true,
        "mac": "00:00:00:00:00:00",
        "address": "::1",
        "netmask": "ffff:ffff:ffff:ffff:ffff:ffff:ffff:ffff",
        "family": "IPv6",
        "scopeid": 0
      },
      {
        "name": "Loopback Pseudo-Interface 1",
        "internal": true,
        "mac": "00:00:00:00:00:00",
        "address": "127.0.0.1",
        "netmask": "255.0.0.0",
        "family": "IPv4"
      }
    ],
    "host": "DESKTOP-75QPJKQ"
  },
  "javascriptStack": {
    "message": "No stack.",
    "stack": [
      "Unavailable."
    ]
  },
  "nativeStack": [
    {
      "pc": "0x00007ff6b3cf2539",
      "symbol": "std::basic_ostream<char,std::char_traits<char> >::operator<<+11561"
    },
    {
      "pc": "0x00007ff6b3cf69e9",
      "symbol": "std::basic_ostream<char,std::char_traits<char> >::operator<<+29145"
    },
    {
      "pc": "0x00007ff6b3cf5868",
      "symbol": "std::basic_ostream<char,std::char_traits<char> >::operator<<+24664"
    },
    {
      "pc": "0x00007ff6b3e1d272",
      "symbol": "v8::base::CPU::has_sse+61266"
    },
    {
      "pc": "0x00007ff6b464b93e",
      "symbol": "v8::Isolate::ReportExternalAllocationLimitReached+94"
    },
    {
      "pc": "0x00007ff6b4633091",
      "symbol": "v8::SharedArrayBuffer::Externalize+785"
    },
    {
      "pc": "0x00007ff6b44fa0fc",
      "symbol": "v8::internal::Heap::EphemeronKeyWriteBarrierFromCode+1468"
    },
    {
      "pc": "0x00007ff6b4505440",
      "symbol": "v8::internal::Heap::ProtectUnprotectedMemoryChunks+1312"
    },
    {
      "pc": "0x00007ff6b4501f34",
      "symbol": "v8::internal::Heap::PageFlagsAreConsistent+3188"
    },
    {
      "pc": "0x00007ff6b44f7643",
      "symbol": "v8::internal::Heap::CollectGarbage+1283"
    },
    {
      "pc": "0x00007ff6b44f5dd4",
      "symbol": "v8::internal::Heap::AllocateExternalBackingStore+1396"
    },
    {
      "pc": "0x00007ff6b4517ea4",
      "symbol": "v8::internal::Factory::NewFillerObject+196"
    },
    {
      "pc": "0x00007ff6b4272271",
      "symbol": "v8::internal::interpreter::JumpTableTargetOffsets::iterator::operator=+1681"
    },
    {
      "pc": "0x00007ff6b4a9528d",
      "symbol": "v8::internal::SetupIsolateDelegate::SetupHeap+517453"
    },
    {
      "pc": "0x00000264dea72bcb",
      "symbol": ""
    }
  ],
  "javascriptHeap": {
    "totalMemory": 2151989248,
    "totalCommittedMemory": 2151989248,
    "usedMemory": 2144875008,
    "availableMemory": 48291840,
    "memoryLimit": 2197815296,
    "heapSpaces": {
      "read_only_space": {
        "memorySize": 262144,
        "committedMemory": 262144,
        "capacity": 33040,
        "used": 33040,
        "available": 0
      },
      "new_space": {
        "memorySize": 2097152,
        "committedMemory": 2097152,
        "capacity": 1047424,
        "used": 181560,
        "available": 865864
      },
      "old_space": {
        "memorySize": 2083139584,
        "committedMemory": 2083139584,
        "capacity": 2079257352,
        "used": 2078704848,
        "available": 552504
      },
      "code_space": {
        "memorySize": 1216512,
        "committedMemory": 1216512,
        "capacity": 1082336,
        "used": 1082336,
        "available": 0
      },
      "map_space": {
        "memorySize": 1576960,
        "committedMemory": 1576960,
        "capacity": 1260320,
        "used": 1260320,
        "available": 0
      },
      "large_object_space": {
        "memorySize": 63647744,
        "committedMemory": 63647744,
        "capacity": 63610120,
        "used": 63610120,
        "available": 0
      },
      "code_large_object_space": {
        "memorySize": 49152,
        "committedMemory": 49152,
        "capacity": 2784,
        "used": 2784,
        "available": 0
      },
      "new_large_object_space": {
        "memorySize": 0,
        "committedMemory": 0,
        "capacity": 1047424,
        "used": 0,
        "available": 1047424
      }
    }
  },
  "resourceUsage": {
    "userCpuSeconds": 675.562,
    "kernelCpuSeconds": 406.609,
    "cpuConsumptionPercent": 2.67771,
    "maxRss": 3551776768,
    "pageFaults": {
      "IORequired": 4242636,
      "IONotRequired": 0
    },
    "fsActivity": {
      "reads": 3693,
      "writes": 83
    }
  },
  "libuv": [
  ],
  "workers": [
  ],
  "environmentVariables": {
    "=C:": "C:\\xampp\\htdocs\\sn\\wp-content\\themes\\splendid",
    "ALLUSERSPROFILE": "C:\\ProgramData",
    "APPDATA": "C:\\Users\\Shuvo\\AppData\\Roaming",
    "ChocolateyInstall": "C:\\ProgramData\\chocolatey",
    "ChocolateyLastPathUpdate": "132286875579249354",
    "CommonProgramFiles": "C:\\Program Files\\Common Files",
    "CommonProgramFiles(x86)": "C:\\Program Files (x86)\\Common Files",
    "CommonProgramW6432": "C:\\Program Files\\Common Files",
    "COMPUTERNAME": "DESKTOP-75QPJKQ",
    "ComSpec": "C:\\Windows\\system32\\cmd.exe",
    "dp0": "C:\\xampp\\htdocs\\sn\\wp-content\\themes\\splendid\\node_modules\\.bin\\",
    "DriverData": "C:\\Windows\\System32\\Drivers\\DriverData",
    "HOME": "C:\\Users\\Shuvo",
    "HOMEDRIVE": "C:",
    "HOMEPATH": "\\Users\\Shuvo",
    "INIT_CWD": "C:\\xampp\\htdocs\\sn\\wp-content\\themes\\splendid",
    "LOCALAPPDATA": "C:\\Users\\Shuvo\\AppData\\Local",
    "LOGONSERVER": "\\\\DESKTOP-75QPJKQ",
    "NODE": "C:\\Program Files\\nodejs\\node.exe",
    "NODE_EXE": "C:\\Program Files\\nodejs\\\\node.exe",
    "NPM_CLI_JS": "C:\\Program Files\\nodejs\\\\node_modules\\npm\\bin\\npm-cli.js",
    "npm_config_access": "",
    "npm_config_allow_same_version": "",
    "npm_config_also": "",
    "npm_config_always_auth": "",
    "npm_config_argv": "{\"remain\":[],\"cooked\":[\"run\",\"start\"],\"original\":[\"run\",\"start\"]}",
    "npm_config_audit": "true",
    "npm_config_audit_level": "low",
    "npm_config_auth_type": "legacy",
    "npm_config_before": "",
    "npm_config_bin_links": "true",
    "npm_config_browser": "",
    "npm_config_ca": "",
    "npm_config_cache": "C:\\Users\\Shuvo\\AppData\\Roaming\\npm-cache",
    "npm_config_cache_lock_retries": "10",
    "npm_config_cache_lock_stale": "60000",
    "npm_config_cache_lock_wait": "10000",
    "npm_config_cache_max": "Infinity",
    "npm_config_cache_min": "10",
    "npm_config_cafile": "",
    "npm_config_cert": "",
    "npm_config_cidr": "",
    "npm_config_color": "true",
    "npm_config_commit_hooks": "true",
    "npm_config_depth": "Infinity",
    "npm_config_description": "true",
    "npm_config_dev": "",
    "npm_config_dry_run": "",
    "npm_config_editor": "notepad.exe",
    "npm_config_engine_strict": "",
    "npm_config_fetch_retries": "2",
    "npm_config_fetch_retry_factor": "10",
    "npm_config_fetch_retry_maxtimeout": "60000",
    "npm_config_fetch_retry_mintimeout": "10000",
    "npm_config_force": "",
    "npm_config_format_package_lock": "true",
    "npm_config_fund": "true",
    "npm_config_git": "git",
    "npm_config_git_tag_version": "true",
    "npm_config_global": "",
    "npm_config_globalconfig": "C:\\Users\\Shuvo\\AppData\\Roaming\\npm\\etc\\npmrc",
    "npm_config_globalignorefile": "C:\\Users\\Shuvo\\AppData\\Roaming\\npm\\etc\\npmignore",
    "npm_config_global_style": "",
    "npm_config_group": "",
    "npm_config_ham_it_up": "",
    "npm_config_heading": "npm",
    "npm_config_https_proxy": "",
    "npm_config_if_present": "",
    "npm_config_ignore_prepublish": "",
    "npm_config_ignore_scripts": "",
    "npm_config_init_author_email": "",
    "npm_config_init_author_name": "",
    "npm_config_init_author_url": "",
    "npm_config_init_license": "ISC",
    "npm_config_init_module": "C:\\Users\\Shuvo\\.npm-init.js",
    "npm_config_init_version": "1.0.0",
    "npm_config_json": "",
    "npm_config_key": "",
    "npm_config_legacy_bundling": "",
    "npm_config_link": "",
    "npm_config_local_address": "",
    "npm_config_loglevel": "notice",
    "npm_config_logs_max": "10",
    "npm_config_long": "",
    "npm_config_maxsockets": "50",
    "npm_config_message": "%s",
    "npm_config_metrics_registry": "https://registry.npmjs.org/",
    "npm_config_node_gyp": "C:\\Program Files\\nodejs\\node_modules\\npm\\node_modules\\node-gyp\\bin\\node-gyp.js",
    "npm_config_node_options": "",
    "npm_config_node_version": "13.11.0",
    "npm_config_noproxy": "",
    "npm_config_offline": "",
    "npm_config_onload_script": "",
    "npm_config_only": "",
    "npm_config_optional": "true",
    "npm_config_otp": "",
    "npm_config_package_lock": "true",
    "npm_config_package_lock_only": "",
    "npm_config_parseable": "",
    "npm_config_prefer_offline": "",
    "npm_config_prefer_online": "",
    "npm_config_prefix": "C:\\Users\\Shuvo\\AppData\\Roaming\\npm",
    "npm_config_preid": "",
    "npm_config_production": "",
    "npm_config_progress": "true",
    "npm_config_proxy": "",
    "npm_config_read_only": "",
    "npm_config_rebuild_bundle": "true",
    "npm_config_registry": "https://registry.npmjs.org/",
    "npm_config_rollback": "true",
    "npm_config_save": "true",
    "npm_config_save_bundle": "",
    "npm_config_save_dev": "",
    "npm_config_save_exact": "",
    "npm_config_save_optional": "",
    "npm_config_save_prefix": "^",
    "npm_config_save_prod": "",
    "npm_config_scope": "",
    "npm_config_scripts_prepend_node_path": "warn-only",
    "npm_config_script_shell": "",
    "npm_config_searchexclude": "",
    "npm_config_searchlimit": "20",
    "npm_config_searchopts": "",
    "npm_config_searchstaleness": "900",
    "npm_config_send_metrics": "",
    "npm_config_shell": "C:\\Windows\\system32\\cmd.exe",
    "npm_config_shrinkwrap": "true",
    "npm_config_sign_git_commit": "",
    "npm_config_sign_git_tag": "",
    "npm_config_sso_poll_frequency": "500",
    "npm_config_sso_type": "oauth",
    "npm_config_strict_ssl": "true",
    "npm_config_tag": "latest",
    "npm_config_tag_version_prefix": "v",
    "npm_config_timing": "",
    "npm_config_tmp": "C:\\Users\\Shuvo\\AppData\\Local\\Temp",
    "npm_config_umask": "0000",
    "npm_config_unicode": "",
    "npm_config_unsafe_perm": "true",
    "npm_config_update_notifier": "true",
    "npm_config_usage": "",
    "npm_config_user": "",
    "npm_config_userconfig": "C:\\Users\\Shuvo\\.npmrc",
    "npm_config_user_agent": "npm/6.13.7 node/v13.11.0 win32 x64",
    "npm_config_version": "",
    "npm_config_versions": "",
    "npm_config_viewer": "browser",
    "npm_execpath": "C:\\Program Files\\nodejs\\node_modules\\npm\\bin\\npm-cli.js",
    "npm_lifecycle_event": "start",
    "npm_lifecycle_script": "gulp",
    "npm_node_execpath": "C:\\Program Files\\nodejs\\node.exe",
    "npm_package_author": "",
    "npm_package_description": "Custom theme for Splendid",
    "npm_package_devDependencies_autoprefixer": "^9.7.4",
    "npm_package_devDependencies_browser_sync": "^2.26.7",
    "npm_package_devDependencies_cssnano": "^4.1.10",
    "npm_package_devDependencies_gulp": "^4.0.2",
    "npm_package_devDependencies_gulp_postcss": "^8.0.0",
    "npm_package_devDependencies_gulp_rename": "^2.0.0",
    "npm_package_devDependencies_gulp_sass": "^4.0.2",
    "npm_package_devDependencies_gulp_sourcemaps": "^2.6.5",
    "npm_package_homepage": "https://bitbucket.org/devshuvo",
    "npm_package_license": "ISC",
    "npm_package_main": "index.js",
    "npm_package_name": "Splendid",
    "npm_package_repository_type": "git",
    "npm_package_repository_url": "git+https://devshuvo@bitbucket.org/devshuvo/",
    "npm_package_scripts_start": "gulp",
    "npm_package_scripts_watch": "gulp watch",
    "npm_package_version": "1.0.0",
    "NPM_PREFIX_NPM_CLI_JS": "C:\\Users\\Shuvo\\AppData\\Roaming\\npm\\node_modules\\npm\\bin\\npm-cli.js",
    "NUMBER_OF_PROCESSORS": "4",
    "OneDrive": "C:\\Users\\Shuvo\\OneDrive",
    "OneDriveConsumer": "C:\\Users\\Shuvo\\OneDrive",
    "OS": "Windows_NT",
    "Path": "C:\\Program Files\\nodejs\\node_modules\\npm\\node_modules\\npm-lifecycle\\node-gyp-bin;C:\\xampp\\htdocs\\sn\\wp-content\\themes\\splendid\\node_modules\\.bin;C:\\Python38\\Scripts\\;C:\\Python38\\;C:\\Windows\\system32;C:\\Windows;C:\\Windows\\System32\\Wbem;C:\\Windows\\System32\\WindowsPowerShell\\v1.0\\;C:\\Windows\\System32\\OpenSSH\\;C:\\Program Files\\nodejs\\;C:\\ProgramData\\chocolatey\\bin;C:\\Program Files (x86)\\AMD\\ATI.ACE\\Core-Static;C:\\xampp\\php;C:\\ProgramData\\ComposerSetup\\bin;C:\\Program Files\\TortoiseSVN\\bin;C:\\Program Files\\Inkscape\\bin;C:\\Program Files\\Git\\cmd;C:\\Users\\Shuvo\\AppData\\Local\\Microsoft\\WindowsApps;C:\\Users\\Shuvo\\AppData\\Roaming\\npm;C:\\Users\\Shuvo\\AppData\\Roaming\\Composer\\vendor\\bin",
    "PATHEXT": ".COM;.EXE;.BAT;.CMD;.VBS;.VBE;.JSE;.WSF;.WSH;.MSC;.PY;.PYW;.CPL",
    "PROCESSOR_ARCHITECTURE": "AMD64",
    "PROCESSOR_IDENTIFIER": "Intel64 Family 6 Model 60 Stepping 3, GenuineIntel",
    "PROCESSOR_LEVEL": "6",
    "PROCESSOR_REVISION": "3c03",
    "ProgramData": "C:\\ProgramData",
    "ProgramFiles": "C:\\Program Files",
    "ProgramFiles(x86)": "C:\\Program Files (x86)",
    "ProgramW6432": "C:\\Program Files",
    "PROMPT": "$P$G",
    "PSModulePath": "C:\\Users\\Shuvo\\Documents\\WindowsPowerShell\\Modules;C:\\Program Files\\WindowsPowerShell\\Modules;C:\\Windows\\system32\\WindowsPowerShell\\v1.0\\Modules",
    "PUBLIC": "C:\\Users\\Public",
    "SystemDrive": "C:",
    "SystemRoot": "C:\\Windows",
    "TEMP": "C:\\Users\\Shuvo\\AppData\\Local\\Temp",
    "TMP": "C:\\Users\\Shuvo\\AppData\\Local\\Temp",
    "USERDOMAIN": "DESKTOP-75QPJKQ",
    "USERDOMAIN_ROAMINGPROFILE": "DESKTOP-75QPJKQ",
    "USERNAME": "Shuvo",
    "USERPROFILE": "C:\\Users\\Shuvo",
    "windir": "C:\\Windows",
    "_prog": "node"
  },
  "sharedObjects": [
    "C:\\Program Files\\nodejs\\node.exe",
    "C:\\Windows\\SYSTEM32\\ntdll.dll",
    "C:\\Windows\\System32\\KERNEL32.DLL",
    "C:\\Windows\\System32\\KERNELBASE.dll",
    "C:\\Windows\\System32\\WS2_32.dll",
    "C:\\Windows\\System32\\RPCRT4.dll",
    "C:\\Windows\\System32\\PSAPI.DLL",
    "C:\\Windows\\System32\\ADVAPI32.dll",
    "C:\\Windows\\System32\\msvcrt.dll",
    "C:\\Windows\\System32\\sechost.dll",
    "C:\\Windows\\System32\\USER32.dll",
    "C:\\Windows\\System32\\win32u.dll",
    "C:\\Windows\\SYSTEM32\\dbghelp.dll",
    "C:\\Windows\\System32\\GDI32.dll",
    "C:\\Windows\\System32\\ucrtbase.dll",
    "C:\\Windows\\System32\\gdi32full.dll",
    "C:\\Windows\\System32\\msvcp_win.dll",
    "C:\\Windows\\System32\\CRYPT32.dll",
    "C:\\Windows\\SYSTEM32\\IPHLPAPI.DLL",
    "C:\\Windows\\System32\\MSASN1.dll",
    "C:\\Windows\\System32\\bcrypt.dll",
    "C:\\Windows\\SYSTEM32\\USERENV.dll",
    "C:\\Windows\\System32\\profapi.dll",
    "C:\\Windows\\SYSTEM32\\WINMM.dll",
    "C:\\Windows\\SYSTEM32\\WINMMBASE.dll",
    "C:\\Windows\\System32\\cfgmgr32.dll",
    "C:\\Windows\\System32\\bcryptPrimitives.dll",
    "C:\\Windows\\System32\\IMM32.DLL",
    "C:\\Windows\\System32\\powrprof.dll",
    "C:\\Windows\\System32\\UMPDC.dll",
    "C:\\Windows\\SYSTEM32\\CRYPTBASE.DLL",
    "C:\\Windows\\system32\\uxtheme.dll",
    "C:\\Windows\\System32\\combase.dll",
    "C:\\Windows\\system32\\mswsock.dll",
    "C:\\Windows\\System32\\kernel.appcore.dll",
    "\\\\?\\C:\\xampp\\htdocs\\sn\\wp-content\\themes\\splendid\\node_modules\\node-sass\\vendor\\win32-x64-79\\binding.node",
    "C:\\Windows\\System32\\NSI.dll",
    "C:\\Windows\\SYSTEM32\\dhcpcsvc6.DLL",
    "C:\\Windows\\SYSTEM32\\dhcpcsvc.DLL",
    "C:\\Windows\\SYSTEM32\\DNSAPI.dll",
    "C:\\Windows\\System32\\rasadhlp.dll",
    "C:\\Windows\\System32\\fwpuclnt.dll",
    "C:\\Windows\\system32\\napinsp.dll",
    "C:\\Windows\\system32\\pnrpnsp.dll",
    "C:\\Windows\\System32\\winrnr.dll",
    "C:\\Windows\\system32\\NLAapi.dll",
    "C:\\Windows\\system32\\wshbth.dll"
  ]
}